Chapter 9 Manual Feature Engineering: | Home Credit Default Risk - Final Report
…
bureau_status_grp <- dcast(bureau_status_grp, SK_ID_BUREAU~STATUS, fill=0)

## Using count as value column: use value.var to override.

bureau_status_grp <- bureau_status_grp %>% mutate(Status_X = X, Status_C= C, Status_0 = `0`)  %>%
   select(SK_ID_BUREAU, Status_X, Status_C, Status_0)
 
bureau_balance_aggr <- bureau_balance_aggr %>% left_join(bureau_status_grp, by= "SK_ID_BUREAU")
bureau_balance_aggr

## # A tibble: 817,395 x 5
##    SK_ID_BUREAU MONTHS_BALANCE Status_X Status_C Status_0
##           <int>          <int>    <dbl>    <dbl>    <dbl>
##  1      5001709            -96       11       86        0
##  2      5001710            -82       30       48        5
##  3      5001711             -3        1        0        3
##  4      5001712            -18        0        9       10
##  5      5001713            -21       22        0        0
##  6      5001714            -14       15        0        0
##  7      5001715            -59       60        0        0
##  8      5001716            -85       20       39       27
##  9      5001717            -21        0        5       17
## 10      5001718            -38       10        3       24
## # ... with 817,385 more rows
